Лабораторная работа 3
…
library(ggplot2)

## Warning: пакет 'ggplot2' был собран под R версии 4.2.2

load('trades.RData')

Объединяем две таблицы и исключаем столбец с территорией
торговли,оставляем только строки с экспортом и импортом.

table <- tibble(Reduce(function(...) merge(..., all=TRUE), trades)) %>% group_by(time)
table <- table %>% select(-geo)
table[table$indic_et %in% c('Exports in million of ECU/EURO', 'Imports in million of ECU/EURO'), ]

## # A tibble: 1,440 × 5
## # Groups:   time [12]
##    indic_et                       sitc06               partner time       values
##    <chr>                          <chr>                <chr>   <date>      <dbl>
##  1 Exports in million of ECU/EURO Chemicals and relat… Brazil  2008-01-01  5097.
##  2 Exports in million of ECU/EURO Chemicals and relat… Brazil  2009-01-01  5079.
##  3 Exports in million of ECU/EURO Chemicals and relat… Brazil  2010-01-01  6869.
##  4 Exports in million of ECU/EURO Chemicals and relat… Brazil  2011-01-01  7562.
##  5 Exports in million of ECU/EURO Chemicals and relat… Brazil  2012-01-01  8806.
##  6 Exports in million of ECU/EURO Chemicals and relat… Brazil  2013-01-01  8859.
##  7 Exports in million of ECU/EURO Chemicals and relat… Brazil  2014-01-01  8894.
##  8 Exports in million of ECU/EURO Chemicals and relat… Brazil  2015-01-01  8983.
##  9 Exports in million of ECU/EURO Chemicals and relat… Brazil  2016-01-01  8276.
## 10 Exports in million of ECU/EURO Chemicals and relat… Brazil  2017-01-01  8427.
## # … with 1,430 more rows
…
